…
> 
> # Finalize the workflow using the best tuning parameters and predict
> # The best parameters were mtry = 9 and min_n = 2
> 
> # Find out the best tuning parameters
> best_forest_tune <- forest_cv_results |> select_best("roc_auc")
> 
> # Use the best tuning parameters for the model
> forest_final_wf <- forest_amazon_wf |> 
+   finalize_workflow(best_forest_tune) |> 
+   fit(data = acces> 
> fore> 
> forest_amazon_predictions <- predict(forest_final_wf, new_data = access_test)
> forest_amazon_predictions
# A tibble: 58,921 × 1
   .pred_class
   <fct>      
 1 0          
 2 1          
 3 1          
 4 1          
 5 1          
 6 1          
 7 1          
 8 1          
 9 1          
10 1          
# ℹ 58,911 more rows
…
